a. 대시보드
	> 결제현황
	> 가입현황
	> 운영장현황
	> 매출계산
b. 주문관리
	> 주문/결제 정보
	> 정산
	> 쿠폰
	> 포인트
	> 설정
	    > 결제설정
	    > 쿠폰설정
	    > 포인트설정
	    > 결제로그
c. 판매상품 정보
	> 상품관리
		> 할인
		> 적립
		> 상품쿠폰
		> 조합상품
		> Q&A
	> 리뷰관리
	> 상품카테고리
	> 장바구니
		> 내역
		> 설정
d. 사용자 관리
	> 회원
	> 매장
	    > 운영자
	    > 매장
	    > 키오스크(디바이스)
	> 설정
		> 등급설정
e. 알림 관리
	> 발신
		> 푸시
		> 문자
		> 카카오
		> 이메일
	> 공지사항
	> Q&A
	> FAQ
f. 디자인
	> 메인 관리
g. 설정
	> 앱버전
	> 이용약관,개인정보취급방침
	> 다국어
	> 로그
	> API Health